TIDYR & DPLYR
…
* Principal diferença (data.frame vs. tibble): forma em que a data frame é apresentada no console

<br>

<center><img src="https://d33wubrfki0l68.cloudfront.net/c477d7eb7fdf2c3d75637cfe19ff4a4d0a107bcf/017d0/css/images/hex/tibble.png" width="200px"><center>

---

<div class="tamanho-tibble">
.pull-right[
##### tibble

```
## # A tibble: 150 x 5
##    Sepal.Length Sepal.Width Petal.Length Petal.Width Species
##           <dbl>       <dbl>        <dbl>       <dbl> <fct>  
##  1          5.1         3.5          1.4         0.2 setosa 
##  2          4.9         3            1.4         0.2 setosa 
##  3          4.7         3.2          1.3         0.2 setosa 
##  4          4.6         3.1          1.5         0.2 setosa 
##  5          5           3.6          1.4         0.2 setosa 
##  6          5.4         3.9          1.7         0.4 setosa 
##  7          4.6         3.4          1.4         0.3 setosa 
##  8          5           3.4          1.5         0.2 setosa 
##  9          4.4         2.9          1.4         0.2 setosa 
## 10          4.9         3.1          1.5         0.1 setosa 
## # ... with 140 more rows
```
…
